{
  "restaurants": [
    {
      "name": "Bistrot Chez Rémy",
      "location": "Paris, France",
      "description": "Gusteau’s was a fictional restaurant in the 2007 Disney/Pixar animated feature film Ratatouille, home to the most famous chef in Paris, Auguste Gusteau. At one time, it was a five-star culinary destination of Paris, and represents the best of the best to Remy.",
      "image": "img/gusteaus.png",
      "rating": 3,
      "reviews": [
        {
          "text": "Overall, Bistrot Chez Remy totally defied my expectations. Not only based on prior experience, but based on the size of the restaurant and limited menu, both of which suggest this is a place looking to churn patrons as quickly as possible. Although my bread did come out quickly, my server adjusted the pacing on the fly (I think) seeing that I was looking for more of a leisurely dining experience.",
          "name": "Tom Bricker",
          "domain": "Disney Tourist Blog",
          "url": "https://www.disneytouristblog.com/bistrot-chez-remy-review/"
        },
        {
          "text": "This isn’t a quick meal, so if you are looking to get back to the theme parks, Bistrot Chez Remy may not be the best option for you. But if you’re looking to enjoy a meal like the French do, leisurely, this is a wonderful option. We spent about an hour and a half there and the whole experience was wonderful. I would definitely go back to Bistrot Chez Remy on a subsequent trip to Disneyland Paris.",
          "name": "Rikki Niblett",
          "domain": "The Mouse for Less",
          "url": "https://www.themouseforless.com/blog_world/2019/05/bistrot-chez-remy-review/"
        },
        {
          "text": "Overall we enjoyed our meal at Bistrot Chez Rémy. The menu, though small, has enough offerings to please everyone in your party. The only thing to note would be that there are absolutely no substitutions here, so what you see is what you get. That said, the food really does play second fiddle to the surroundings. It is a bit more pricey than other table service restaurants around Disneyland Paris, but the atmosphere and complete immersion into a beloved film are where most Disney fans will find their value. The setting is what you will come for and you will not be disappointed. A chance to dine at Rémy’s restaurant is a special experience and is worth a visit in itself.",
          "name": "Kim",
          "domain": "Disney Food Blog",
          "url": "https://www.disneyfoodblog.com/2015/03/11/guest-review-bistrot-chez-remy-at-disneyland-paris/"
        }
      ]
    },
    {
      "name": "Be Our Guest Restaurant",
      "location": "Orlando, USA",
      "description": "Be Our Guest Restaurant is an expansive and elegant dining destination located at the foot of Beast's Castle in Fantasyland. Whether you are enjoying lunch or dinner, you will experience an atmosphere made for memories.",
      "image": "img/be-our-guest.jpg",
      "rating": 4,
      "reviews": [
        {
          "text": "For the average family with kids doing their first Walt Disney World vacation (or an infrequent visit), Be Our Guest Restaurant will hold much more appeal for dinner. When viewed from that perspective, though, I think Cinderella’s Royal Table (which is underrated for its food, in my opinion) gives Be Our Guest Restaurant a run for its money. All of this is to say that I think Be Our Guest Restaurant is an excellent option; however, there are good alternatives for all demographics, so if you can’t score that elusive dinner ADR, it’s not the end of the world. Just make sure you do breakfast or lunch instead, as you’ll definitely want to see the inside of the restaurant one way or another.",
          "name": "Tom Bricker",
          "domain": "Disney Tourist Blog",
          "url": "https://www.disneytouristblog.com/dinner-be-our-guest-restaurant-review/"
        },
        {
          "text": "Overall I think that Be Our Guest is a wonderful Disney dining experience. The setting is highly themed and immersive. You’ll really feel like you are part of the Beauty & The Beast story when you dine there.\nMy preferred meal there is lunch since I think it represents the best bang for your buck. I like being able to choose whatever I want depending on how hungry I am without a fixed price.",
          "name": "Leah Crocker Althiser",
          "domain": "The Budget Mouse",
          "url": "https://thebudgetmouse.com/be-our-guest-restaurant-review/"
        }
      ]
    }
  ]
}